[6, 1, 6, 6, 3, 6, 2, 0]
[6, 8, 1, 3, 4, 9, 9, 5]
[4, 7, 2, 3, 8, 9, 3, 9]
[2, 5, 4, 6, 3, 1, 2, 3]
[0, 5, 4, 0, 2, 5, 5, 4]
[8, 6, 4, 1, 5, 7, 5, 0]
[6, 8, 6, 7, 9, 1, 0, 8]
[0, 2, 0, 5, 8, 8, 4, 3]
